Place,Name,Country,WeightClassKg,BirthYear,BodyweightKg,Bench1Kg,Bench2Kg,Bench3Kg,Best3BenchKg,TotalKg,Division,Sex,Event,Equipment
1,Irmeli Vaulakorpi,Finland,48,1954,48,60,-65,65,65,65,Masters 1,F,B,Single-ply
1,Danielle Taret,France,60,1954,59.4,100,-105,105,105,105,Masters 1,F,B,Single-ply
1,Regina Haas,Germany,67.5,1962,66.2,102.5,105,-107.5,105,105,Masters 1,F,B,Single-ply
2,Evelyne Herbin,France,67.5,1956,66.6,90,100,-107.5,100,100,Masters 1,F,B,Single-ply
1,Åsa Halvarsson,Sweden,75,1962,74,97.5,-105,105,105,105,Masters 1,F,B,Single-ply
2,Ursula Haeuser,Germany,75,1960,70.5,95,100,-105,100,100,Masters 1,F,B,Single-ply
1,Hana Takáčová,Czechia,82.5,1954,79.6,115,120,125,125,125,Masters 1,F,B,Single-ply
2,Barbara Pawlik,Poland,82.5,1959,77.9,85,90,-95,90,90,Masters 1,F,B,Single-ply
3,Sirpa Kokkonen,Finland,82.5,1958,76.2,67.5,75,-82.5,75,75,Masters 1,F,B,Single-ply
1,Eva Speth,Germany,90,1954,84,105,110,112.5,112.5,112.5,Masters 1,F,B,Single-ply
DQ,Conrads Anqelique,Sweden,90,1958,89.3,-90,-92.5,-92.5,,,Masters 1,F,B,Single-ply
1,Merja Mynttinen,Finland,90+,1958,104.5,125,130,-135,130,130,Masters 1,F,B,Single-ply
2,Christian Schopper,France,90+,1961,98,-117.5,-125,125,125,125,Masters 1,F,B,Single-ply
1,Françoise Heligon,France,48,1943,44.6,55,57.5,-60,57.5,57.5,Masters 2,F,B,Single-ply
1,Seija Turmen,Finland,52,1947,49.8,50,55,60,60,60,Masters 2,F,B,Single-ply
1,Anita Thimm,Germany,67.5,1950,64.1,80,-85,-85,80,80,Masters 2,F,B,Single-ply
2,Erika Wimmer,Germany,67.5,1940,66.2,57.5,-60,-60,57.5,57.5,Masters 2,F,B,Single-ply
1,Renate Spiegel,Germany,75,1939,68,60,65,67.5,67.5,67.5,Masters 2,F,B,Single-ply
1,Ursula Eulestein,Germany,82.5,1949,75.8,65,70,72.5,72.5,72.5,Masters 2,F,B,Single-ply
1,István Tóth,Hungary,60,1956,57.2,120,130,-140,130,130,Masters 1,M,B,Single-ply
1,Pekka Kihlström,Sweden,67.5,1959,65.9,-167.5,167.5,172.5,172.5,172.5,Masters 1,M,B,Single-ply
2,Erkki Rajala,Finland,67.5,1962,66.7,-167.5,167.5,-170,167.5,167.5,Masters 1,M,B,Single-ply
3,Adrian Dakosta,France,67.5,1963,66.8,160,165,-170,165,165,Masters 1,M,B,Single-ply
4,Peter Muigg,Australia,67.5,1958,66.7,140,-145,-145,140,140,Masters 1,M,B,Single-ply
5,Jouko Kastegren,Finland,67.5,1954,67.3,-130,135,-142.5,135,135,Masters 1,M,B,Single-ply
1,Erik Rasmussen,Denmark,75,1962,75,167.5,-170,-170,167.5,167.5,Masters 1,M,B,Single-ply
2,Miloš Ochlan,Slovakia,75,1962,74.1,-160,162.5,-167.5,162.5,162.5,Masters 1,M,B,Single-ply
3,Kari Remes,Finland,75,1960,74.8,157.5,-162.5,162.5,162.5,162.5,Masters 1,M,B,Single-ply
4,Gelhar Karsten,Germany,75,1957,74.3,-145,145,-150,145,145,Masters 1,M,B,Single-ply
5,Lars Midtbø,Norway,75,1956,72.7,130,137.5,-145,137.5,137.5,Masters 1,M,B,Single-ply
1,Ilkka Launonen,Finland,82.5,1954,81.6,177.5,182.5,-187.5,182.5,182.5,Masters 1,M,B,Single-ply
2,Peter Rathke,Germany,82.5,1959,81.6,165,-170,170,170,170,Masters 1,M,B,Single-ply
3,Thierry Leprovost,France,82.5,1954,80.9,-167.5,-167.5,167.5,167.5,167.5,Masters 1,M,B,Single-ply
1,Patrick LeBlevennec,France,90,1963,82.7,177.5,185,-195,185,185,Masters 1,M,B,Single-ply
2,Luciano Bertoleti,Italy,90,1959,82.6,-165,165,-167.5,165,165,Masters 1,M,B,Single-ply
3,Damjanovic Milan,Serbia and Montenegro,90,1957,84,130,-140,140,140,140,Masters 1,M,B,Single-ply
1,Vladimir Volkov,Russia,100,1959,96.2,230,-237.5,237.5,237.5,237.5,Masters 1,M,B,Single-ply
2,István Ágoston,Hungary,100,1962,98.9,-225,225,-232.5,225,225,Masters 1,M,B,Single-ply
3,Tony Brown,UK,100,1962,99,207.5,-215,-215,207.5,207.5,Masters 1,M,B,Single-ply
4,Francisko Perez,Spain,100,1963,97,-200,200,-210,200,200,Masters 1,M,B,Single-ply
5,Aleksandar Rakočević,Serbia and Montenegro,100,1963,99.8,-200,200,-210,200,200,Masters 1,M,B,Single-ply
1,Aleksandar Koblov,Russia,110,1954,108.7,225,232.5,-235,232.5,232.5,Masters 1,M,B,Single-ply
2,Harri Hagfors,Finland,110,1961,100.3,195,202.5,215,215,215,Masters 1,M,B,Single-ply
3,Thomas Stiemerling,Germany,110,1960,105.9,202.5,210,215,215,215,Masters 1,M,B,Single-ply
4,Mario Pagel,Germany,110,1960,109.2,-215,215,-230,215,215,Masters 1,M,B,Single-ply
5,Kinghorn Ian,UK,110,1957,102.2,185,195,-205,195,195,Masters 1,M,B,Single-ply
1,Massey Julian,UK,125,1956,112.6,170,180,192.5,192.5,192.5,Masters 1,M,B,Single-ply
2,Anton Speth,Germany,125,1955,122.2,192.5,-200,-200,192.5,192.5,Masters 1,M,B,Single-ply
DQ,Heikki Hirvonen,Finland,125,1961,116.2,-150,,,,,Masters 1,M,B,Single-ply
1,Esa Jantunen,Finland,125+,1961,127.3,220,230,240,240,240,Masters 1,M,B,Single-ply
2,Piotr Pawlik,Poland,125+,1955,129.8,220,230,-240,230,230,Masters 1,M,B,Single-ply
1,Gennadiu Vasyliev,Ukraine,60,1952,58.8,100,105,-110,105,105,Masters 2,M,B,Single-ply
1,Joachim Lietzau,Germany,67.5,1950,64,110,120,-122.5,120,120,Masters 2,M,B,Single-ply
2,Burkhard Steffen,Germany,67.5,1950,64.4,112.5,117.5,-122.5,117.5,117.5,Masters 2,M,B,Single-ply
1,Atila Javovecki,Hungary,75,1947,74.4,145,150,-152.5,150,150,Masters 2,M,B,Single-ply
2,Olavi Hotarinen,Finland,75,1952,73.9,130,140,142.5,142.5,142.5,Masters 2,M,B,Single-ply
DQ,Sergey Nikiforon,Russia,75,1947,74,-140,-140,-140,,,Masters 2,M,B,Single-ply
1,Taisto Paananen,Finland,82.5,1949,81.6,170,177.5,180,180,180,Masters 2,M,B,Single-ply
2,Bjarne Synstad,Norway,82.5,1951,79.7,165,172.5,177.5,177.5,177.5,Masters 2,M,B,Single-ply
3,Kari Nieminen,Finland,82.5,1951,81.9,152.5,-160,-160,152.5,152.5,Masters 2,M,B,Single-ply
4,Hans-Jurgen Stabenov,Germany,82.5,1946,81.2,130,-140,-140,130,130,Masters 2,M,B,Single-ply
1,Anatoliy Beolukh,Ukraine,90,1950,89.7,-170,170,185,185,185,Masters 2,M,B,Single-ply
2,Uske Paananen,Sweden,90,1948,89.6,-180,180,182.5,182.5,182.5,Masters 2,M,B,Single-ply
3,Hans-Juergen Pietsch,Germany,90,1948,88.9,175,180,-182.5,180,180,Masters 2,M,B,Single-ply
4,Rachid Amalou,France,90,1950,85.2,-155,-155,155,155,155,Masters 2,M,B,Single-ply
5,Ketil Hodne,Norway,90,1947,88.7,135,145,-150,145,145,Masters 2,M,B,Single-ply
6,Radovanovic Sibin,Serbia and Montenegro,90,1944,84,130,-140,-140,130,130,Masters 2,M,B,Single-ply
1,Jerzulav Furmanek,Poland,100,1952,99.1,220,-240,240,240,240,Masters 2,M,B,Single-ply
2,Hans-Ulrich Vetter,Germany,100,1952,99.8,180,190,192.5,192.5,192.5,Masters 2,M,B,Single-ply
3,Gavrilov Milivoj,Serbia and Montenegro,100,1953,91.7,120,127.5,135,135,135,Masters 2,M,B,Single-ply
1,Kurt Nygård,Finland,110,1946,108,180,-187.5,195,195,195,Masters 2,M,B,Single-ply
2,Laurent Durocher,France,110,1947,100.1,182.5,187.5,192.5,192.5,192.5,Masters 2,M,B,Single-ply
1,Tuomo Löllö,Finland,125,1953,120.2,190,200,215.5,215.5,215.5,Masters 2,M,B,Single-ply
2,Christer Nylund,Finland,125,1944,111.6,170,180,185,185,185,Masters 2,M,B,Single-ply
3,Vujovic Veselin,Serbia and Montenegro,125,1947,116.1,140,160,182.5,182.5,182.5,Masters 2,M,B,Single-ply
4,Georg Boström,Sweden,125,1947,114.8,100,,,100,100,Masters 2,M,B,Single-ply
1,Raimo Aulis Sipiläinen,Finland,125+,1949,129.9,215,-222.5,-222.5,215,215,Masters 2,M,B,Single-ply
2,Lev Schprints,Russia,125+,1952,139.7,-185,185,195,195,195,Masters 2,M,B,Single-ply
3,Karl-Heinz Voscul,Germany,125+,1949,142.8,170,175,-180,175,175,Masters 2,M,B,Single-ply
1,Börje Eriksson,Sweden,67.5,1942,66.7,110,130,133,133,133,Masters 3,M,B,Single-ply
2,Ulrich Mielich,Germany,67.5,1939,66.5,65,70,72.5,72.5,72.5,Masters 3,M,B,Single-ply
1,Atila Siklosi,Hungary,75,1942,74.3,140,-147.5,-147.5,140,140,Masters 3,M,B,Single-ply
2,Rolf Halvorsen,Norway,75,1941,74,125,-130,130,130,130,Masters 3,M,B,Single-ply
3,Milan Babin,Serbia and Montenegro,75,1938,74.5,-112.5,120,-125,120,120,Masters 3,M,B,Single-ply
DQ,Matti Räihä,Finland,75,1943,73.9,-142.5,-142.5,-142.5,,,Masters 3,M,B,Single-ply
1,Bill McFayden,UK,82.5,1934,81.9,-155,155,170,170,170,Masters 3,M,B,Single-ply
2,Josef Wimmer,Germany,82.5,1936,76.6,105,110,115,115,115,Masters 3,M,B,Single-ply
1,Béla Bolgárfalvi,Hungary,90,1943,89.3,137.5,142.5,-145,142.5,142.5,Masters 3,M,B,Single-ply
2,Gerd Fell,Germany,90,1938,86.9,130,135,140,140,140,Masters 3,M,B,Single-ply
3,Peter Uher,Czechia,90,1934,88.8,130,-137.5,137.5,137.5,137.5,Masters 3,M,B,Single-ply
1,Max Dublet,France,100,1942,98.8,145,155,-157.5,155,155,Masters 3,M,B,Single-ply
2,Barrie Scot,UK,100,1938,91.3,120,-127.5,127.5,127.5,127.5,Masters 3,M,B,Single-ply
3,Klaus Feldmann,Germany,100,1936,95.7,115,-120,120,120,120,Masters 3,M,B,Single-ply
1,Oivind Askeland,Norway,125,1942,122.9,155,165,175,175,175,Masters 3,M,B,Single-ply
