Name,Age,Event,Sex,Division,Equipment,Tested,BodyweightKg,WeightClassKg,Squat1Kg,Squat2Kg,Squat3Kg,Best3SquatKg,Bench1Kg,Bench2Kg,Bench3Kg,Best3BenchKg,Deadlift1Kg,Deadlift2Kg,Deadlift3Kg,Best3DeadliftKg,TotalKg,Place
Laura Young,51,SBD,F,M3,Wraps,Yes,95.3,90+,62.5,-67.5,-67.5,62.5,32.5,37.5,-40,37.5,62.5,70,75,75,175,1
Julie Novack,25,SBD,F,O,Wraps,Yes,51.4,52,-62.5,65,-77.5,65,-45,45,47.5,47.5,92.5,105,115,115,227.5,1
Sara Frankovich-Hannie,29,SBD,F,O,Wraps,Yes,68.3,75,107.5,112.5,117.5,117.5,52.5,57.5,-60,57.5,122.5,137.5,-142.5,137.5,312.5,1
Emily Hart,34,SBD,F,O,Wraps,Yes,72.4,75,75,85,-92.5,85,35,40,-42.5,40,107.5,115,122.5,122.5,247.5,2
Natasha Prybil,29,SBD,F,O,Wraps,Yes,85.9,90,125,132.5,140,140,67.5,72.5,-77.5,72.5,137.5,150,,150,362.5,1
Heather Young,24,SBD,F,O,Wraps,Yes,97.8,90+,-112.5,-112.5,-112.5,,-55,-55,-55,,122.5,130,-140,130,,DQ
Bonnie Thomas,30,SBD,F,O,Multi-ply,Yes,59.5,60,122.5,137.5,-142.5,137.5,-75,75,-80,75,142.5,-152.5,-152.5,142.5,355,1
Kylie Ziegelmann,19,SBD,F,T3,Multi-ply,Yes,82.3,82.5,112.5,-125,-142.5,112.5,45,52.5,-60,52.5,102.5,110,122.5,122.5,287.5,1
Jessica Marie McCormick,17,SBD,F,T2,Multi-ply,Yes,71.3,75,67.5,80,-95,80,-35,40,45,45,80,92.5,102.5,102.5,227.5,1
Patricia Lockett,57,SBD,F,M4,Wraps,No,95.7,90+,30,40,-45,40,30,-37.5,37.5,37.5,60,70,77.5,77.5,155,1
Tracey Adams,45,SBD,F,M2,Wraps,No,85.5,90,-92.5,92.5,97.5,97.5,65,-72.5,-72.5,65,112.5,120,125,125,287.5,1
Staci Webb,33,SBD,F,S,Wraps,No,97,90+,30,42.5,50,50,32.5,45,-60,45,60,80,-95,80,175,1
Emily Goudeau,37,SBD,F,S,Wraps,No,156.6,90+,30,40,45,45,30,-35,-35,30,60,75,85,85,160,2
Julie Novack,25,SBD,F,O,Wraps,No,51.4,52,-62.5,65,-77.5,65,-45,45,47.5,47.5,92.5,105,115,115,227.5,1
Jennifer Hobbs #1,26,SBD,F,O,Wraps,No,69.2,75,65,72.5,-77.5,72.5,32.5,-37.5,-37.5,32.5,-97.5,97.5,,97.5,202.5,1
Janellie Pineda,21,SBD,F,J,Wraps,No,60,60,65,70,77.5,77.5,55,60,-62.5,60,102.5,110,-117.5,110,247.5,1
Caitlin Auffenberg,20,SBD,F,J,Wraps,No,73.5,75,35,62.5,92.5,92.5,32.5,50,60,60,42.5,75,107.5,107.5,260,1
Melissa Herman,21,SBD,F,J,Wraps,No,88.6,90,70,102.5,115,115,37.5,55,-65,55,85,140,-170,140,310,1
Samantha Lee,17,SBD,F,T2,Wraps,No,58.3,60,62.5,70,77.5,77.5,35,-40,-40,35,87.5,100,105,105,217.5,1
Stacey Williams,31,SBD,F,O,Wraps,No,101.9,90+,30,-50,-55,30,30,40,-50,40,70,105,130,130,200,1
Eric D'Agostino,26,SBD,M,O,Wraps,Yes,78,82.5,130,140,147.5,147.5,95,100,-107.5,100,175,182.5,192.5,192.5,440,1
Frederick Hannie,29,SBD,M,O,Wraps,Yes,97.7,100,250,260,-270,260,165,175,180,180,262.5,-277.5,280,280,720,1
Eric Lovelace,25,SBD,M,O,Wraps,Yes,96.9,100,165,177.5,-182.5,177.5,122.5,132.5,-137.5,132.5,197.5,210,-217.5,210,520,2
Cody Hart,29,SBD,M,O,Wraps,Yes,123.7,125,140,147.5,157.5,157.5,85,-92.5,-92.5,85,180,187.5,197.5,197.5,440,1
Mitchell McRae,25,SBD,M,O,Wraps,Yes,126.4,140,150,157.5,170,170,102.5,-112.5,-112.5,102.5,215,227.5,232.5,232.5,505,1
Jake Akromas,20,SBD,M,J,Wraps,Yes,91.4,100,125,147.5,-160,147.5,102.5,110,-120,110,130,-155,-160,130,387.5,1
Darin Bolton,18,SBD,M,T3,Wraps,Yes,69.5,75,105,117.5,122.5,122.5,77.5,85,-87.5,85,142.5,152.5,-162.5,152.5,360,1
Stephen Roller,19,SBD,M,T3,Wraps,Yes,80.6,82.5,-110,120,-137.5,120,105,-115,-115,105,150,160,170,170,395,1
Joe Nathan Ornelas,17,SBD,M,T2,Wraps,Yes,88.7,90,175,182.5,190,190,132.5,-142.5,-142.5,132.5,210,-222.5,230,230,552.5,1
Chase Yates,17,SBD,M,T2,Wraps,Yes,89.4,90,167.5,175,-190,175,122.5,-135,-135,122.5,207.5,227.5,-237.5,227.5,525,2
Benny Jaramillo,47,SBD,M,M2,Multi-ply,Yes,127.9,140,160,170,197.5,197.5,120,-130,-130,120,160,172.5,192.5,192.5,510,1
Ralph Eckley,63,SBD,M,M5,Wraps,No,98.3,100,130,140,-145,140,95,97.5,-102.5,97.5,142.5,152.5,165,165,402.5,1
David Muntz,54,SBD,M,M3,Wraps,No,95.3,100,192.5,202.5,-212.5,202.5,147.5,-155,-155,147.5,197.5,210,-222.5,210,560,1
Frank Gonzalez,41,SBD,M,M1,Wraps,No,172.2,140+,260,267.5,280,280,170,185,195,195,257.5,272.5,280,280,755,1
Jesse Brunet,33,SBD,M,S,Wraps,No,88.5,90,-135,147.5,-170,147.5,112.5,125,-137.5,125,185,210,227.5,227.5,500,1
Derek Jarman,37,SBD,M,S,Wraps,No,106.5,110,220,225,237.5,237.5,170,-192.5,-192.5,170,260,270,-302.5,270,677.5,1
Dan Ziegelmann,39,SBD,M,S,Wraps,No,108.2,110,205,225,-240,225,155,-165,170,170,220,235,242.5,242.5,637.5,2
Bryce Dehn,27,SBD,M,O,Wraps,No,74.4,75,115,-125,-137.5,115,107.5,-122.5,-122.5,107.5,210,245,-262.5,245,467.5,1
Jesse Brunet,33,SBD,M,O,Wraps,No,88.5,90,-135,147.5,-170,147.5,112.5,125,-137.5,125,185,210,227.5,227.5,500,1
Deidrick Thomas,26,SBD,M,O,Wraps,No,89.4,90,87.5,142.5,155,155,82.5,92.5,102.5,102.5,180,197.5,-210,197.5,455,2
Justin Tripp,24,SBD,M,O,Wraps,No,98.9,100,135,-157.5,-165,135,115,-142.5,-142.5,115,200,-240,-240,200,450,1
Michael Brunet,27,SBD,M,O,Wraps,No,97.5,100,-105,110,137.5,137.5,90,-107.5,-110,90,142.5,160,175,175,402.5,2
Armando Carreon,25,SBD,M,O,Wraps,No,108.3,110,247.5,267.5,275,275,177.5,-192.5,200,200,247.5,267.5,280,280,755,1
Derek Jarman,37,SBD,M,O,Wraps,No,106.5,110,220,225,237.5,237.5,170,-192.5,-192.5,170,260,270,-302.5,270,677.5,2
Cody Caffey,29,SBD,M,O,Wraps,No,106.1,110,172.5,-177.5,-177.5,172.5,102.5,-110,-110,102.5,220,-230,-230,220,495,3
Jesus Fernandez,32,SBD,M,O,Wraps,No,125,125,85,102.5,-137.5,102.5,-100,110,-142.5,110,162.5,212.5,227.5,227.5,440,1
Trey Kerth,32,SBD,M,O,Wraps,No,124.4,125,200,-215,215,215,-185,-185,,,280,-292.5,,280,,DQ
Justin Childs,27,SBD,M,O,Wraps,No,137.8,140,205,227.5,260,260,165,-192.5,192.5,192.5,182.5,220,-240,220,672.5,1
Jonathan Medina,31,SBD,M,O,Wraps,No,145.4,140+,247.5,-272.5,-272.5,247.5,180,185,-192.5,185,240,-265,-265,240,672.5,1
Zachary LeFevre,13,SBD,M,T1,Wraps,No,65.7,67.5,32.5,-70,-82.5,32.5,37.5,45,-55,45,72.5,105,-127.5,105,182.5,1
Austin LeFevre,15,SBD,M,T1,Wraps,No,84.3,90,62.5,87.5,-112.5,87.5,60,70,-77.5,70,70,115,137.5,137.5,295,1
Collin Grebel,15,SBD,M,T1,Wraps,No,117,125,205,220,235,235,167.5,182.5,195,195,192.5,207.5,220,220,650,1
Vince Breaux,68,SBD,M,M6,Multi-ply,No,95.8,100,65,,,65,70,,,70,80,,,80,215,1
Mark Eichenseer,57,SBD,M,M4,Multi-ply,No,81.3,82.5,-185,185,205,205,-165,-165,-165,,205,227.5,-242.5,227.5,,DQ
Jeremy Schraw,26,SBD,M,O,Multi-ply,No,120.6,125,317.5,-342.5,-342.5,317.5,147.5,162.5,167.5,167.5,275,292.5,-305,292.5,777.5,1
Brendan Morr,22,SBD,M,J,Multi-ply,No,99.8,100,222.5,237.5,250,250,165,-172.5,,165,215,-230,-230,215,630,1
Khang Nguyen,28,SBD,M,O,Wraps,No,74.4,75,135,165,177.5,177.5,115,-132.5,-132.5,115,165,185,205,205,497.5,1
Cassandra Sheard,23,B,F,J,Raw,No,64.9,67.5,,,,,-57.5,57.5,-60,57.5,,,,,57.5,1
Diana Janecek,47,B,F,M2,Multi-ply,No,60,60,,,,,-57.5,-57.5,-57.5,,,,,,,DQ
VH Shelton,37,B,M,O,Raw,Yes,88.9,90,,,,,-175,-175,175,175,,,,,175,1
Kevin Williams,56,B,M,M4,Raw,No,89.3,90,,,,,142.5,145,-147.5,145,,,,,145,1
Derek Jarman,37,B,M,S,Raw,No,106.5,110,,,,,170,-192.5,-192.5,170,,,,,170,1
Dan Ziegelmann,39,B,M,S,Raw,No,108.2,110,,,,,155,-165,170,170,,,,,170,2
Jaisyn Mike,37,B,M,S,Raw,No,134.3,140,,,,,210,-227.5,227.5,227.5,,,,,227.5,1
Michael Avila,28,B,M,O,Raw,No,80,82.5,,,,,112.5,-140,-140,112.5,,,,,112.5,1
Jeff Younker,27,B,M,O,Raw,No,139.1,140,,,,,165,-182.5,182.5,182.5,,,,,182.5,1
Vince Breaux,68,B,M,M6,Multi-ply,No,95.8,100,,,,,70,,,70,,,,,70,1
Bryce Dehn,27,D,M,O,Raw,No,74.4,75,,,,,,,,,210,245,-262.5,245,245,1
David Navarro,23,D,M,O,Raw,No,107.8,110,,,,,,,,,260,275,,275,275,1
Tom Emelander,31,D,M,O,Raw,No,124.3,125,,,,,,,,,-350,,,,,DQ
David Navarro,23,D,M,J,Raw,No,107.8,110,,,,,,,,,260,275,,275,275,1
Justin Gonzales,23,D,M,J,Raw,No,88.3,90,,,,,,,,,-177.5,185,192.5,192.5,192.5,1
