Division,WeightClassKg,Place,Name,Team,BodyweightKg,Best3SquatKg,Best3BenchKg,Best3DeadliftKg,TotalKg,Equipment,Event,Sex
Boys,52,1,John Magbanua,Texarkana Texas,51.26,122.47,63.5,138.35,324.32,Single-ply,SBD,M
Boys,52,2,Pablo Gutierrez,Mount Pleasant,51.71,115.67,68.04,136.08,319.78,Single-ply,SBD,M
Boys,52,3,Wesley Gage,Paris,51.71,111.13,61.23,124.74,297.1,Single-ply,SBD,M
Boys,52,4,Oscar Yanez,Sulphur Springs,50.8,102.06,61.23,120.2,283.5,Single-ply,SBD,M
Boys,52,5,Eric Hernandez,New London West Rusk,49.9,90.72,61.23,117.93,269.89,Single-ply,SBD,M
Boys,52,6,John McWhorter,Lindale,49.9,92.99,49.9,97.52,240.4,Single-ply,SBD,M
Boys,52,7,Daren Lemons,Quinlan Ford,47.63,92.99,36.29,90.72,219.99,Single-ply,SBD,M
Boys,52,8,Bronson Dierkson,Texarkana Texas,48.99,83.91,38.56,92.99,215.46,Single-ply,SBD,M
Boys,52,9,Evan Mattox,Longview Pine Tree,49.44,61.23,38.56,92.99,192.78,Single-ply,SBD,M
Boys,52,DQ,Carl Shehane,Quinlan Ford,50.8,115.67,61.23,,,Single-ply,SBD,M
Boys,56,1,Trey Arras,Texarkana Liberty-Eylau,52.16,145.15,83.91,167.83,396.89,Single-ply,SBD,M
Boys,56,2,James Fisher,Texarkana Texas,55.34,145.15,72.57,145.15,362.87,Single-ply,SBD,M
Boys,56,3,Evelio Mendoza,Gilmer,53.52,124.74,61.23,131.54,317.51,Single-ply,SBD,M
Boys,56,4,Jaden Taylor,Lindale,55.34,115.67,58.97,136.08,310.71,Single-ply,SBD,M
Boys,56,5,Bryce Evans,Paris North Lamar,54.43,108.86,61.23,120.2,290.3,Single-ply,SBD,M
Boys,56,6,Robert Solorzano,Greenville,53.52,117.93,54.43,113.4,285.76,Single-ply,SBD,M
Boys,56,7,Austin Sisco,Commerce,53.98,99.79,63.5,120.2,283.5,Single-ply,SBD,M
Boys,56,8,Joe Campbell,Ore City,54.43,95.25,47.63,138.35,281.23,Single-ply,SBD,M
Boys,56,9,Eddie Hernandez,New London West Rusk,52.62,90.72,61.23,106.59,258.55,Single-ply,SBD,M
Boys,60,1,Josh Bolton,Paris North Lamar,56.7,156.49,92.99,172.37,421.84,Single-ply,SBD,M
Boys,60,2,Cristian Contreras,Greenville,59.42,149.69,104.33,145.15,399.16,Single-ply,SBD,M
Boys,60,3,Laravione Finley,Texarkana Texas,59.42,151.95,79.38,158.76,390.09,Single-ply,SBD,M
Boys,60,4,Jackson Kennedy,Texarkana Pleasant Grove,59.87,142.88,95.25,151.95,390.09,Single-ply,SBD,M
Boys,60,5,Jemetric Allen,Greenville,59.87,154.22,92.99,142.88,390.09,Single-ply,SBD,M
Boys,60,6,Jonathen Alvarez,Sulphur Springs,59.87,156.49,77.11,154.22,387.82,Single-ply,SBD,M
Boys,60,7,Kyler Cooper,Texarkana Pleasant Grove,59.87,147.42,83.91,147.42,378.75,Single-ply,SBD,M
Boys,60,8,Daniel Landaverde,Mount Pleasant,59.87,136.08,74.84,149.69,360.61,Single-ply,SBD,M
Boys,60,9,Josh Holland,Lindale,58.51,136.08,74.84,147.42,358.34,Single-ply,SBD,M
Boys,60,10,Garrett Davis,Quinlan Ford,57.15,138.35,68.04,145.15,351.53,Single-ply,SBD,M
Boys,60,11,Dustin Crabtree,Sulphur Springs,58.97,136.08,61.23,149.69,347,Single-ply,SBD,M
Boys,60,12,Andrew Spellman,Lindale,58.06,136.08,65.77,142.88,344.73,Single-ply,SBD,M
Boys,60,13,Anqurrus Harris,Paris,59.87,124.74,74.84,115.67,315.25,Single-ply,SBD,M
Boys,60,14,Chase Radney,Quinlan Ford,58.97,90.72,70.31,113.4,274.42,Single-ply,SBD,M
Boys,67.5,1,David Martin,Texarkana Pleasant Grove,63.96,199.58,142.88,249.48,591.94,Single-ply,SBD,M
Boys,67.5,2,Xzavius Gray,Paris,66.68,201.85,111.13,206.38,519.36,Single-ply,SBD,M
Boys,67.5,3,Matthew Rumbaugh,Commerce,65.77,188.24,97.52,195.04,480.81,Single-ply,SBD,M
Boys,67.5,4,Cody Bargerhuff,Greenville,64.86,188.24,90.72,188.24,467.2,Single-ply,SBD,M
Boys,67.5,5,Taylor Ibarra,Mount Vernon,65.32,176.9,104.33,181.44,462.66,Single-ply,SBD,M
Boys,67.5,6,Josh Johnson,Paris North Lamar,65.77,170.1,99.79,192.78,462.66,Single-ply,SBD,M
Boys,67.5,7,Conner Darnell,Paris North Lamar,63.96,167.83,120.2,163.29,451.32,Single-ply,SBD,M
Boys,67.5,8,Cesar Colunga,Emory Rains,67.13,165.56,90.72,179.17,435.45,Single-ply,SBD,M
Boys,67.5,9,Brayden Lopez,Commerce,67.13,163.29,99.79,167.83,430.91,Single-ply,SBD,M
Boys,67.5,10,Ethan Wagner,Texarkana Pleasant Grove,63.96,154.22,92.99,167.83,415.04,Single-ply,SBD,M
Boys,67.5,11,Donavon Smith,Greenville,64.86,170.1,95.25,149.69,415.04,Single-ply,SBD,M
Boys,67.5,12,Travius Bronner,Paris,63.5,163.29,90.72,158.76,412.77,Single-ply,SBD,M
Boys,67.5,13,Wrangler Welch,Quinlan Ford,64.86,145.15,83.91,181.44,410.5,Single-ply,SBD,M
Boys,67.5,14,Kane Tucker,Lindale,66.68,158.76,79.38,158.76,396.89,Single-ply,SBD,M
Boys,67.5,15,Damarcus Sanders,Greenville,66.22,167.83,77.11,147.42,392.36,Single-ply,SBD,M
Boys,67.5,16,Christopher Dunson,Greenville,62.6,149.69,92.99,138.35,381.02,Single-ply,SBD,M
Boys,67.5,17,Sean Collins,Gilmer,63.96,147.42,77.11,151.95,376.48,Single-ply,SBD,M
Boys,67.5,18,Michael Broyles,Canton,64.41,147.42,74.84,151.95,374.21,Single-ply,SBD,M
Boys,67.5,19,Ladorron Jones,New London West Rusk,65.77,136.08,72.57,151.95,360.61,Single-ply,SBD,M
Boys,67.5,20,Joseph Moore,Cooper,67.13,142.88,65.77,147.42,356.07,Single-ply,SBD,M
Boys,67.5,21,Julian Fierros,Longview Pine Tree,60.33,120.2,77.11,147.42,344.73,Single-ply,SBD,M
Boys,67.5,22,Christian Garcia,Emory Rains,64.86,124.74,72.57,147.42,344.73,Single-ply,SBD,M
Boys,67.5,23,Zach Thompson,Gilmer,67.13,131.54,74.84,138.35,344.73,Single-ply,SBD,M
Boys,67.5,24,Orran Simmons,Longview Pine Tree,62.14,120.2,79.38,142.88,342.46,Single-ply,SBD,M
Boys,67.5,25,Jesse Thiessen,Paris Chisum,66.68,117.93,72.57,149.69,340.19,Single-ply,SBD,M
Boys,67.5,26,Lukas Enloe,Gilmer,64.86,120.2,79.38,136.08,335.66,Single-ply,SBD,M
Boys,67.5,27,De'Quenek Shepard,Mount Vernon,62.6,113.4,72.57,147.42,333.39,Single-ply,SBD,M
Boys,67.5,28,Josh Bell,Commerce,63.05,115.67,61.23,151.95,328.85,Single-ply,SBD,M
Boys,67.5,29,Emanuel Brewer,Lindale,65.32,113.4,79.38,136.08,328.85,Single-ply,SBD,M
Boys,67.5,30,Bryden Wilson #2,Cooper,65.77,124.74,72.57,129.27,326.59,Single-ply,SBD,M
Boys,67.5,31,Jonathan Woods,Mount Pleasant,67.13,136.08,72.57,106.59,315.25,Single-ply,SBD,M
Boys,67.5,32,Lee Armstrong,Paris Chisum,64.86,106.59,61.23,136.08,303.91,Single-ply,SBD,M
Boys,67.5,33,Nathan Smith,Mount Vernon,61.69,108.86,68.04,113.4,290.3,Single-ply,SBD,M
Boys,67.5,DQ,Christian Dunson,Greenville,61.69,,,,,Single-ply,SBD,M
Boys,67.5,DQ,Scott Galarza,Sulphur Springs,63.05,149.69,,,,Single-ply,SBD,M
Boys,75,1,Matt Hargis,Rockwall-Heath,73.94,167.83,113.4,183.7,464.93,Single-ply,SBD,M
Boys,75,2,Vincent Morales,Sulphur Springs,72.57,158.76,97.52,204.12,460.4,Single-ply,SBD,M
Boys,75,3,Jimmy Enriquez,Greenville,68.95,197.31,92.99,167.83,458.13,Single-ply,SBD,M
Boys,75,4,Cor'tavius Pruitt,Sulphur Springs,68.49,181.44,92.99,181.44,455.86,Single-ply,SBD,M
Boys,75,5,Montana Meador,Lindale,71.21,149.69,99.79,167.83,417.3,Single-ply,SBD,M
Boys,75,6,Cameron Wisdom,Gilmer,74.39,163.29,86.18,163.29,412.77,Single-ply,SBD,M
Boys,75,7,John Hays,Texarkana Texas,73.48,136.08,108.86,163.29,408.23,Single-ply,SBD,M
Boys,75,8,Ethan Stevens,Rockwall-Heath,70.31,151.95,99.79,154.22,405.97,Single-ply,SBD,M
Boys,75,9,Tristen Martin,Rockwall-Heath,68.04,158.76,92.99,145.15,396.89,Single-ply,SBD,M
Boys,75,10,Tre King,Paris,72.12,165.56,86.18,136.08,387.82,Single-ply,SBD,M
Boys,75,11,Cameron Woods,Mount Vernon,72.12,147.42,74.84,165.56,387.82,Single-ply,SBD,M
Boys,75,12,Carson Bridges,Sulphur Springs,69.85,138.35,81.65,158.76,378.75,Single-ply,SBD,M
Boys,75,13,Trevor Hurt,Texarkana Liberty-Eylau,73.48,124.74,79.38,142.88,347,Single-ply,SBD,M
Boys,75,14,Garrette McGee,Paris Chisum,73.03,129.27,92.99,120.2,342.46,Single-ply,SBD,M
Boys,75,15,Hunter Jones,Paris North Lamar,69.4,124.74,68.04,142.88,335.66,Single-ply,SBD,M
Boys,75,16,Greg Yarbrough,Paris,69.4,124.74,72.57,136.08,333.39,Single-ply,SBD,M
Boys,75,17,Josh Sears,Daingerfield,68.04,124.74,77.11,120.2,322.05,Single-ply,SBD,M
Boys,75,18,Tristan Hollon,Cooper,69.85,129.27,61.23,127.01,317.51,Single-ply,SBD,M
Boys,75,19,Lane Waldon,Ore City,70.31,117.93,61.23,138.35,317.51,Single-ply,SBD,M
Boys,75,20,Jacob Barbour,Texarkana Pleasant Grove,67.59,111.13,68.04,129.27,308.44,Single-ply,SBD,M
Boys,75,21,Samuel Hughes,Quinlan Ford,68.95,102.06,61.23,127.01,290.3,Single-ply,SBD,M
Boys,75,22,Luke Harris,Ore City,68.95,99.79,65.77,111.13,276.69,Single-ply,SBD,M
Boys,75,23,Landon Helton,Quinlan Ford,74.39,99.79,68.04,104.33,272.16,Single-ply,SBD,M
Boys,75,DQ,Ricky Higginbotham,New London West Rusk,72.57,142.88,,,,Single-ply,SBD,M
Boys,75,DQ,Cody Hawkins,Canton,72.57,117.93,,165.56,,Single-ply,SBD,M
Boys,82.5,1,Zanoah Arnold,Texarkana Liberty-Eylau,81.65,233.6,138.35,256.28,628.23,Single-ply,SBD,M
Boys,82.5,2,Ryan Taylor,Lindale,80.29,231.33,127.01,217.72,576.06,Single-ply,SBD,M
Boys,82.5,3,Isaiah Neal,Sulphur Springs,80.74,195.04,108.86,213.19,517.1,Single-ply,SBD,M
Boys,82.5,4,Patrick Hoffman,Mount Vernon,80.74,192.78,120.2,201.85,514.83,Single-ply,SBD,M
Boys,82.5,5,Eric Pheng,Paris North Lamar,75.75,183.7,120.2,195.04,498.95,Single-ply,SBD,M
Boys,82.5,6,Jordan Robinson,Lindale,77.56,195.04,99.79,190.51,485.34,Single-ply,SBD,M
Boys,82.5,7,Andre Wiley,Texarkana Liberty-Eylau,79.38,170.1,111.13,192.78,474,Single-ply,SBD,M
Boys,82.5,8,Jaxon Heveron,Paris North Lamar,79.83,176.9,113.4,183.7,474,Single-ply,SBD,M
Boys,82.5,9,Isiah Richardson,Longview Pine Tree,81.19,172.37,99.79,195.04,467.2,Single-ply,SBD,M
Boys,82.5,10,Josue Pena,Greenville,80.74,188.24,92.99,181.44,462.66,Single-ply,SBD,M
Boys,82.5,11,Jeffery Sapp,Texarkana Texas,82.1,174.63,102.06,183.7,460.4,Single-ply,SBD,M
Boys,82.5,12,Mason Chrisman,Paris North Lamar,77.11,165.56,102.06,190.51,458.13,Single-ply,SBD,M
Boys,82.5,13,Cameron Greenberg,Mount Vernon,77.11,176.9,102.06,174.63,453.59,Single-ply,SBD,M
Boys,82.5,14,Damion Gwin,Mount Pleasant,79.83,161.03,104.33,183.7,449.06,Single-ply,SBD,M
Boys,82.5,15,Jeremy Kelly,Gilmer,78.93,172.37,90.72,176.9,439.98,Single-ply,SBD,M
Boys,82.5,16,Leramy Drew,Texarkana Texas,81.19,142.88,113.4,183.7,439.98,Single-ply,SBD,M
Boys,82.5,17,Angel Hernandez,Greenville,79.83,172.37,106.59,156.49,435.45,Single-ply,SBD,M
Boys,82.5,18,John Haller,Mount Vernon,76.66,156.49,83.91,181.44,421.84,Single-ply,SBD,M
Boys,82.5,19,Bradley Brown,Canton,76.2,147.42,74.84,181.44,403.7,Single-ply,SBD,M
Boys,82.5,20,Roby Pridemore,Paris Chisum,79.38,142.88,106.59,151.95,401.43,Single-ply,SBD,M
Boys,82.5,21,Michael Cortez,Mount Pleasant,80.29,158.76,77.11,163.29,399.16,Single-ply,SBD,M
Boys,82.5,22,Le'Darius Sneed,Texarkana Texas,78.02,147.42,83.91,149.69,381.02,Single-ply,SBD,M
Boys,82.5,23,Armando Hinojosa,Lindale,77.11,138.35,81.65,151.95,371.95,Single-ply,SBD,M
Boys,82.5,24,Evan Rushing,Sulphur Springs,79.38,149.69,61.23,142.88,353.8,Single-ply,SBD,M
Boys,82.5,25,John Bunch,Quinlan Ford,77.56,136.08,70.31,131.54,337.93,Single-ply,SBD,M
Boys,82.5,26,Enoel Rodriguez,Mount Pleasant,82.1,117.93,86.18,133.81,337.93,Single-ply,SBD,M
Boys,82.5,27,Corey De Armint,Lindale,77.56,124.74,70.31,131.54,326.59,Single-ply,SBD,M
Boys,82.5,28,Grayson Haxton,Lindale,75.75,124.74,77.11,113.4,315.25,Single-ply,SBD,M
Boys,82.5,DQ,Andrew Murphy #3,Paris Chisum,78.47,147.42,,,,Single-ply,SBD,M
Boys,82.5,DQ,Casey Breece,Honey Grove,81.65,136.08,79.38,,,Single-ply,SBD,M
Boys,82.5,DQ,Lakken Stuart,Texarkana Liberty-Eylau,77.11,111.13,,,,Single-ply,SBD,M
Boys,82.5,DQ,Noah Bates,Texarkana Pleasant Grove,79.38,151.95,,,,Single-ply,SBD,M
Boys,90,1,Caranedal Hale,Greenville,89.36,272.16,151.95,254.01,678.12,Single-ply,SBD,M
Boys,90,2,Michael Champion,Commerce,83.91,238.14,117.93,208.65,564.72,Single-ply,SBD,M
Boys,90,3,Guillermo Vasquez,Greenville,85.28,226.8,117.93,192.78,537.51,Single-ply,SBD,M
Boys,90,4,Clayton Hawley,Lindale,84.82,195.04,127.01,199.58,521.63,Single-ply,SBD,M
Boys,90,5,Chris Arnold,Texarkana Texas,89.81,192.78,102.06,226.8,521.63,Single-ply,SBD,M
Boys,90,6,Ty McDaniel,Lindale,88.45,213.19,104.33,201.85,519.36,Single-ply,SBD,M
Boys,90,7,Tyler Cheres,Mount Vernon,83.46,174.63,120.2,201.85,496.68,Single-ply,SBD,M
Boys,90,8,Jonathan Allen,Texarkana Texas,88.45,201.85,97.52,188.24,487.61,Single-ply,SBD,M
Boys,90,9,Tyreque Hoskins,Greenville,82.55,181.44,113.4,181.44,476.27,Single-ply,SBD,M
Boys,90,10,Cade Pearson,Texarkana Texas,86.18,151.95,92.99,226.8,471.74,Single-ply,SBD,M
Boys,90,11,David Bledsoe,Lindale,83.46,170.1,106.59,190.51,467.2,Single-ply,SBD,M
Boys,90,12,Ben McFadden,Lindale,87.09,158.76,108.86,199.58,467.2,Single-ply,SBD,M
Boys,90,13,Jon Paye,Gilmer,83.01,151.95,92.99,163.29,408.23,Single-ply,SBD,M
Boys,90,14,Kyle Reed,Lindale,86.64,154.22,86.18,167.83,408.23,Single-ply,SBD,M
Boys,90,15,Colten Armstrong,Sulphur Springs,85.28,149.69,92.99,149.69,392.36,Single-ply,SBD,M
Boys,90,16,Gunner Vest,Paris,89.81,142.88,86.18,156.49,385.55,Single-ply,SBD,M
Boys,90,17,Ignacio Guerrero,Sulphur Springs,83.91,149.69,79.38,154.22,383.29,Single-ply,SBD,M
Boys,90,18,Michael Godwin,Paris,86.18,156.49,86.18,136.08,378.75,Single-ply,SBD,M
Boys,90,19,Kyson Hogue,Paris,87.54,122.47,88.45,142.88,353.8,Single-ply,SBD,M
Boys,90,20,Caleb Wiley,Paris North Lamar,85.73,138.35,70.31,142.88,351.53,Single-ply,SBD,M
Boys,90,21,Carlos Martinez,Mount Pleasant,83.46,124.74,83.91,136.08,344.73,Single-ply,SBD,M
Boys,90,22,Ethan Hand,Canton,87.54,122.47,81.65,140.61,344.73,Single-ply,SBD,M
Boys,90,23,Dante Reed,Ore City,88.9,77.11,68.04,113.4,258.55,Single-ply,SBD,M
Boys,100,1,Andrew Turner,Mount Pleasant,96.62,226.8,154.22,226.8,607.81,Single-ply,SBD,M
Boys,100,2,Richard Mainor,Texarkana Liberty-Eylau,92.53,210.92,147.42,231.33,589.67,Single-ply,SBD,M
Boys,100,3,Brandon Melton,Quinlan Ford,97.07,226.8,133.81,210.92,571.53,Single-ply,SBD,M
Boys,100,4,Eli Britt,Emory Rains,92.08,226.8,133.81,208.65,569.26,Single-ply,SBD,M
Boys,100,5,Quentin Bowes,Commerce,94.8,213.19,111.13,226.8,551.11,Single-ply,SBD,M
Boys,100,6,Jose Rodriguez,Gilmer,97.98,204.12,102.06,217.72,523.9,Single-ply,SBD,M
Boys,100,7,Michael Lindley,Texarkana Liberty-Eylau,91.63,208.65,120.2,183.7,512.56,Single-ply,SBD,M
Boys,100,8,Dejontae Harper,Texarkana Texas,91.17,204.12,106.59,192.78,503.49,Single-ply,SBD,M
Boys,100,9,Da'shawn Harris,Texarkana Texas,98.43,197.31,124.74,181.44,503.49,Single-ply,SBD,M
Boys,100,10,Rylie Riebesell,Texarkana Pleasant Grove,97.98,188.24,120.2,183.7,492.15,Single-ply,SBD,M
Boys,100,11,Jason White,Emory Rains,97.52,185.97,106.59,183.7,476.27,Single-ply,SBD,M
Boys,100,12,Brandon Osteen,New London West Rusk,99.34,183.7,106.59,185.97,476.27,Single-ply,SBD,M
Boys,100,13,Xzavier Hopkins,Texarkana Texas,94.35,174.63,113.4,183.7,471.74,Single-ply,SBD,M
Boys,100,14,Charles Miller,Quinlan Ford,97.52,181.44,108.86,163.29,453.59,Single-ply,SBD,M
Boys,100,15,Simon Rico,Greenville,92.99,181.44,90.72,172.37,444.52,Single-ply,SBD,M
Boys,100,16,Seth Allen,Ore City,97.52,172.37,88.45,172.37,433.18,Single-ply,SBD,M
Boys,100,17,Brett Howell,New London West Rusk,98.43,174.63,83.91,167.83,426.38,Single-ply,SBD,M
Boys,100,18,Leonard Parks,Texarkana Texas,91.63,158.76,97.52,165.56,421.84,Single-ply,SBD,M
Boys,100,19,Jose Fuentes,Longview Pine Tree,92.99,151.95,104.33,161.03,417.3,Single-ply,SBD,M
Boys,100,20,Jose Rodriguez,Sulphur Springs,95.71,158.76,83.91,163.29,405.97,Single-ply,SBD,M
Boys,100,21,Jake Corley,Lindale,99.79,154.22,86.18,156.49,396.89,Single-ply,SBD,M
Boys,100,22,Ladd Preston,Texarkana Texas,94.35,147.42,88.45,149.69,385.55,Single-ply,SBD,M
Boys,100,23,Cole Miller,Quinlan Ford,99.34,124.74,79.38,142.88,347,Single-ply,SBD,M
Boys,100,24,Dustin Wallace,Emory Rains,93.89,102.06,79.38,142.88,324.32,Single-ply,SBD,M
Boys,100,25,Edan Wickerchem,Paris North Lamar,96.16,165.56,95.25,,260.82,Single-ply,SB,M
Boys,100,26,Brett Benson,Longview Pine Tree,92.99,61.23,38.56,65.77,165.56,Single-ply,SBD,M
Boys,100,DQ,James Sandifer,Lindale,90.26,145.15,,,,Single-ply,SBD,M
Boys,100,DQ,Latravious Parker,Texarkana Liberty-Eylau,96.62,,,,,Single-ply,SBD,M
Boys,110,1,Kerrian Goree,Greenville,101.6,226.8,161.03,210.92,598.74,Single-ply,SBD,M
Boys,110,2,Brandon Halliday,Paris North Lamar,104.78,219.99,142.88,217.72,580.6,Single-ply,SBD,M
Boys,110,3,Ian Blanch,Sulphur Springs,104.78,231.33,129.27,217.72,578.33,Single-ply,SBD,M
Boys,110,4,Matthew Davidson,New London West Rusk,103.87,210.92,106.59,210.92,528.44,Single-ply,SBD,M
Boys,110,5,De'Waven Rowden,Texarkana Liberty-Eylau,106.59,192.78,111.13,199.58,503.49,Single-ply,SBD,M
Boys,110,6,Jesse Head,Lindale,100.24,199.58,113.4,172.37,485.34,Single-ply,SBD,M
Boys,110,7,Cheyenne Lockhart,Texarkana Liberty-Eylau,105.69,192.78,97.52,192.78,483.08,Single-ply,SBD,M
Boys,110,8,Landon Green,Gilmer,107.95,192.78,102.06,188.24,483.08,Single-ply,SBD,M
Boys,110,9,James Tarantino,Texarkana Texas,109.77,197.31,117.93,165.56,480.81,Single-ply,SBD,M
Boys,110,10,Austin Morgan,Commerce,107.05,188.24,102.06,183.7,474,Single-ply,SBD,M
Boys,110,11,Joey Haley,Paris North Lamar,108.41,170.1,83.91,204.12,458.13,Single-ply,SBD,M
Boys,110,12,David Partida,Rockwall-Heath,103.42,163.29,115.67,174.63,453.59,Single-ply,SBD,M
Boys,110,13,Ryan Forbes,Texarkana Pleasant Grove,105.69,156.49,97.52,176.9,430.91,Single-ply,SBD,M
Boys,110,14,Dalton Morgan,Daingerfield,100.7,158.76,97.52,170.1,426.38,Single-ply,SBD,M
Boys,110,15,Tremaine Brown,Texarkana Liberty-Eylau,101.6,158.76,111.13,156.49,426.38,Single-ply,SBD,M
Boys,110,16,Santiago Castillo,Lindale,102.51,149.69,88.45,149.69,387.82,Single-ply,SBD,M
Boys,110,17,David Hart,Ore City,101.6,142.88,83.91,136.08,362.87,Single-ply,SBD,M
Boys,110,18,Trenton Blundell,Cooper,106.59,124.74,86.18,136.08,347,Single-ply,SBD,M
Boys,110,19,Dakota Fourman,Longview Pine Tree,100.7,122.47,65.77,129.27,317.51,Single-ply,SBD,M
Boys,110,20,Bailey Hughes,Longview Pine Tree,100.7,113.4,79.38,113.4,306.17,Single-ply,SBD,M
Boys,110,DQ,Cason Cheney,Lindale,107.05,145.15,90.72,151.95,,Single-ply,SBD,M
Boys,110,DQ,Sanjay Pokhrel,Texarkana Pleasant Grove,101.15,151.95,,,,Single-ply,SBD,M
Boys,125,1,Tyler Segrest,Lindale,120.2,260.82,163.29,247.21,671.32,Single-ply,SBD,M
Boys,125,2,Franklin Smith,Texarkana Liberty-Eylau,123.38,240.4,120.2,240.4,601.01,Single-ply,SBD,M
Boys,125,3,Ernesto Lopez,Greenville,122.02,247.21,133.81,197.31,578.33,Single-ply,SBD,M
Boys,125,4,Dakota Helm,Paris,119.75,215.46,120.2,238.14,573.79,Single-ply,SBD,M
Boys,125,5,Trey Potter,Ore City,122.02,226.8,151.95,195.04,573.79,Single-ply,SBD,M
Boys,125,6,Alec Dickinson,Honey Grove,117.48,215.46,92.99,204.12,512.56,Single-ply,SBD,M
Boys,125,7,Elian Bustos,Texarkana Texas,116.12,197.31,115.67,183.7,496.68,Single-ply,SBD,M
Boys,125,8,Colton Chamberlain,Paris North Lamar,117.93,190.51,120.2,165.56,476.27,Single-ply,SBD,M
Boys,125,9,AJ Carroll,Daingerfield,118.84,170.1,113.4,188.24,471.74,Single-ply,SBD,M
Boys,125,10,Dakota Smith,Canton,123.38,204.12,90.72,154.22,449.06,Single-ply,SBD,M
Boys,125,11,Jorge Gutierrez,Mount Vernon,110.68,181.44,77.11,149.69,408.23,Single-ply,SBD,M
Boys,125,12,Mason Shoalmire,Texarkana Texas,120.66,149.69,79.38,170.1,399.16,Single-ply,SBD,M
Boys,125,13,Victor Martinez,New London West Rusk,113.85,158.76,90.72,142.88,392.36,Single-ply,SBD,M
Boys,125,14,Drew Nunn,Canton,113.4,165.56,70.31,151.95,387.82,Single-ply,SBD,M
Boys,125,15,Riley Miner,Paris North Lamar,117.48,83.91,65.77,106.59,256.28,Single-ply,SBD,M
Boys,125,DQ,Connor Green,Texarkana Liberty-Eylau,111.58,149.69,,,,Single-ply,SBD,M
Boys,125,DQ,Brayden Withrow,Cooper,124.74,131.54,,,,Single-ply,SBD,M
Boys,125+,1,Dylan Raley,Texarkana Texas,138.35,235.87,124.74,240.4,601.01,Single-ply,SBD,M
Boys,125+,2,Caleb Johnson,Mount Pleasant,139.25,238.14,127.01,215.46,580.6,Single-ply,SBD,M
Boys,125+,3,Eric Nard,Texarkana Texas,142.88,242.67,129.27,208.65,580.6,Single-ply,SBD,M
Boys,125+,4,Byron Muse,Paris,125.65,219.99,142.88,206.38,569.26,Single-ply,SBD,M
Boys,125+,5,Manuel Soavedra,Greenville,149.23,238.14,120.2,176.9,535.24,Single-ply,SBD,M
Boys,125+,6,Kaleo Scott,Texarkana Pleasant Grove,130.63,197.31,108.86,217.72,523.9,Single-ply,SBD,M
Boys,125+,7,Logan DeGarso,Greenville,131.54,208.65,122.47,179.17,510.29,Single-ply,SBD,M
Boys,125+,8,Shamaal Parrish,Texarkana Liberty-Eylau,158.76,181.44,106.59,192.78,480.81,Single-ply,SBD,M
Boys,125+,9,Corbin Johnson,Lindale,128.37,204.12,115.67,158.76,478.54,Single-ply,SBD,M
Boys,125+,10,Sharad Edmond,Longview Pine Tree,140.61,170.1,102.06,199.58,471.74,Single-ply,SBD,M
Boys,125+,11,Taylon Jackson,Commerce,125.65,199.58,106.59,163.29,469.47,Single-ply,SBD,M
Boys,125+,12,Jaquon Lyons,Greenville,143.34,195.04,102.06,172.37,469.47,Single-ply,SBD,M
Boys,125+,13,Ben Grisson,Mount Pleasant,143.34,188.24,111.13,158.76,458.13,Single-ply,SBD,M
Boys,125+,14,William Womack,New London West Rusk,145.15,149.69,92.99,145.15,387.82,Single-ply,SBD,M
Boys,125+,15,Matao Jacinto,Quinlan Ford,159.21,142.88,79.38,154.22,376.48,Single-ply,SBD,M
