Name,Age,Sex,Equipment,Division,BodyweightKg,WeightClassKg,Squat1Kg,Squat2Kg,Squat3Kg,Best3SquatKg,Bench1Kg,Bench2Kg,Bench3Kg,Best3BenchKg,Deadlift1Kg,Deadlift2Kg,Deadlift3Kg,Best3DeadliftKg,TotalKg,Place,Event
Monica Johnson,58,F,Wraps,F-OC,59.87,60,80,92.5,-102.5,92.5,52.5,60,62.5,62.5,100,115,122.5,122.5,277.5,1,SBD
Jennifer Huerta,40,F,Wraps,F-OC,66.95,67.5,110,117.5,-127.5,117.5,42.5,47.5,50,50,112.5,120,-130,120,287.5,1,SBD
Caitlin Sullivan,26,F,Wraps,F-OC,73.94,75,170,182.5,-187.5,182.5,85,92.5,-95,92.5,170,182.5,187.5,187.5,462.5,1,SBD
Paige Haberman,24,F,Wraps,F-OC,70.49,75,117.5,127.5,-132.5,127.5,70,-75,-75,70,137.5,147.5,152.5,152.5,350,2,SBD
Carolyn McBride,25,F,Wraps,F-OC,74.39,75,107.5,117.5,125,125,57.5,62.5,-65,62.5,132.5,-142.5,-142.5,132.5,320,3,SBD
Mimi Munuz,22,F,Wraps,F-OC,81.19,82.5,95,-102.5,102.5,102.5,47.5,55,-57.5,55,95,120,122.5,122.5,280,1,SBD
Kelley Flynn,40,F,Wraps,F-OC,94.71,90+,-135,-135,-137.5,,45,52.5,60,60,112.5,130,132.5,132.5,,DQ,SBD
Bonnie Matthews,36,F,Wraps,F-OC,117.12,90+,137.5,150,-165,150,90,97.5,102.5,102.5,180,192.5,197.5,197.5,450,1,SBD
Laurie Dreier,62,F,Wraps,F-OC,96.62,90+,37.5,47.5,-60,47.5,32.5,42.5,-50,42.5,85,-112.5,-112.5,85,175,2,SBD
Cosette Neely,39,F,Multi-ply,F-OM,47.26,48,-142.5,142.5,157.5,157.5,115,122.5,-132.5,122.5,130,142.5,-152.5,142.5,422.5,1,SBD
Debbie Schwartz-Damminga,55,F,Multi-ply,F-OM,71.85,75,230,242.5,255,255,100,107.5,115,115,207.5,220,232.5,232.5,602.5,1,SBD
Patty Garber,58,F,Multi-ply,F-OM,69.85,75,-167.5,167.5,175,175,92.5,100,105,105,152.5,165,175,175,455,2,SBD
Krystal Cary,32,F,Raw,F-OR,80.83,82.5,127.5,137.5,147.5,147.5,87.5,92.5,-97.5,92.5,167.5,172.5,177.5,177.5,417.5,1,SBD
Torey Strand,27,F,Raw,F-OR,95.07,90+,102.5,110,-120,110,57.5,62.5,70,70,130,137.5,-142.5,137.5,317.5,1,SBD
Trevor Burns,17,M,Wraps,M-OC,57.7,60,132.5,137.5,145,145,97.5,107.5,-110,107.5,142.5,152.5,160,160,412.5,1,SBD
Cameron Cash,17,M,Wraps,M-OC,66.13,67.5,-130,135,-140,135,97.5,100,-107.5,100,145,155,162.5,162.5,397.5,1,SBD
Dan Jared,28,M,Wraps,M-OC,78.11,82.5,167.5,180,187.5,187.5,122.5,132.5,142.5,142.5,192.5,215,-222.5,215,545,1,SBD
Colton Magers,22,M,Wraps,M-OC,88.18,90,272.5,-280,-280,272.5,-162.5,162.5,-170,162.5,250,-265,-265,250,685,1,SBD
Nick Albrecht,32,M,Wraps,M-OC,89.36,90,200,-215,-215,200,150,165,-172.5,165,232.5,260,272.5,272.5,637.5,2,SBD
Alex Binkly,22,M,Wraps,M-OC,87,90,-205,205,-220,205,130,140,145,145,195,220,-227.5,220,570,3,SBD
Cam Waldrep,17,M,Wraps,M-OC,87.72,90,205,-217.5,217.5,217.5,125,137.5,-142.5,137.5,182.5,192.5,-202.5,192.5,547.5,4,SBD
Trevor Campbell,20,M,Wraps,M-OC,88.36,90,155,175,192.5,192.5,110,120,130,130,170,185,200,200,522.5,5,SBD
Angel Hernandez,28,M,Wraps,M-OC,89.81,90,125,145,165,165,-60,60,,60,180,207.5,215,215,440,6,SBD
David Haig,30,M,Wraps,M-OC,84.19,90,102.5,125,-147.5,125,82.5,92.5,97.5,97.5,125,142.5,160,160,382.5,7,SBD
Kain Martin,30,M,Wraps,M-OC,95.07,100,200,215,227.5,227.5,130,140,-145,140,-220,,,,,DQ,SBD
Val Huertga,43,M,Wraps,M-OC,97.98,100,297.5,-312.5,312.5,312.5,155,160,165,165,-290,-290,-297.5,,,DQ,SBD
Brandon Jacob,33,M,Wraps,M-OC,98.79,100,227.5,240,252.5,252.5,167.5,175,185,185,257.5,277.5,282.5,282.5,720,1,SBD
Matthew Davidson,44,M,Wraps,M-OC,97.07,100,170,185,200,200,125,137.5,147.5,147.5,205,217.5,222.5,222.5,570,2,SBD
James Burns,47,M,Wraps,M-OC,95.53,100,-137.5,137.5,145,145,80,95,-105,95,137.5,150,-157.5,150,390,3,SBD
Ron Eaton,38,M,Wraps,M-OC,107.95,110,217.5,235,250,250,157.5,182.5,192.5,192.5,227.5,247.5,267.5,267.5,710,1,SBD
Dylan Kuehn,21,M,Wraps,M-OC,104.69,110,250,272.5,280,280,162.5,175,-182.5,175,227.5,242.5,250,250,705,2,SBD
Cjay Stauber,23,M,Wraps,M-OC,112.49,125,235,260,275,275,152.5,170,182.5,182.5,235,260,275,275,732.5,1,SBD
Aaron Lister,31,M,Wraps,M-OC,138.35,140,282.5,305,-320,305,195,215,220,220,305,330,-337.5,330,855,1,SBD
Adam Harrington,36,M,Wraps,M-OC,131.09,140,237.5,-252.5,-252.5,237.5,160,175,182.5,182.5,250,272.5,280,280,700,2,SBD
Dustin Slepicka,30,M,Wraps,M-OC,198.67,140+,355,387.5,-410,387.5,185,197.5,207.5,207.5,365,,,365,960,1,SBD
Lenny Skeenning,42,M,Wraps,M-OC,190.51,140+,-227.5,250,272.5,272.5,185,200,207.5,207.5,227.5,250,275,275,755,2,SBD
Cody Parker,19,M,Wraps,M-OC,164.65,140+,225,237.5,242.5,242.5,-120,-127.5,127.5,127.5,190,200,-215,200,570,3,SBD
Misael Peraza,29,M,Multi-ply,M-OM,81.65,82.5,300,-320,320,320,-185,185,190,190,255,275,-287.5,275,785,1,SBD
Jake Daake,22,M,Multi-ply,M-OM,89.36,90,-260,275,-280,275,157.5,170,-172.5,170,225,-240,240,240,685,1,SBD
Dustin Johnson,29,M,Multi-ply,M-OM,99.52,100,370,387.5,-400,387.5,-275,-275,-275,,295,302.5,320,320,,DQ,SBD
Dayan Neely,39,M,Multi-ply,M-OM,107.5,110,-377.5,-377.5,-377.5,,230,-240,,230,-320,327.5,-347.5,327.5,,DQ,SBD
Greg Denny,34,M,Multi-ply,M-OM,108.86,110,-387.5,400,-415,400,250,262.5,272.5,272.5,-252.5,252.5,-282.5,252.5,925,1,SBD
Brian Ericksen,46,M,Multi-ply,M-OM,103.33,110,272.5,285,295,295,-197.5,197.5,,197.5,215,-225,-225,215,707.5,2,SBD
Jeff Miller,35,M,Multi-ply,M-OM,115.58,125,420,437.5,455,455,-237.5,237.5,245,245,327.5,352.5,,352.5,1052.5,1,SBD
Zdenek Voprada,42,M,Multi-ply,M-OM,116.94,125,300,-320,320,320,197.5,210,222.5,222.5,227.5,250,265,265,807.5,2,SBD
Joe Mass,47,M,Multi-ply,M-OM,119.57,125,320,-332.5,-332.5,320,-207.5,-207.5,207.5,207.5,242.5,-250,-250,242.5,770,3,SBD
Brian Durham,41,M,Multi-ply,M-OM,138.8,140,387.5,-412.5,412.5,412.5,187.5,210,222.5,222.5,275,300,-320,300,935,1,SBD
Gregg Damminga,55,M,Multi-ply,M-OM,133.81,140,-335,350,-365,350,140,215,227.5,227.5,287.5,315,-330,315,892.5,2,SBD
Alex Larmon,24,M,Raw,M-OR,81.28,82.5,125,137.5,147.5,147.5,-92.5,-107.5,-110,,-147.5,,,,,DQ,SBD
Brandon Barclay,15,M,Raw,M-OR,76.66,82.5,145,165,-172.5,165,92.5,105,-110,105,165,175,-182.5,175,445,1,SBD
Spenser Nagel,29,M,Raw,M-OR,99.34,100,177.5,192.5,-197.5,192.5,-125,125,-137.5,125,205,-230,-230,205,522.5,1,SBD
Kyle Hough,25,M,Raw,M-OR,96.62,100,120,135,150,150,85,102.5,107.5,107.5,165,177.5,185,185,442.5,2,SBD
Donnie James,53,M,Raw,M-OR,98.43,100,110,122.5,137.5,137.5,102.5,-107.5,-107.5,102.5,142.5,152.5,-162.5,152.5,392.5,3,SBD
Nick Langer,27,M,Raw,M-OR,105.41,110,255,-265,265,265,185,197.5,205,205,260,272.5,287.5,287.5,757.5,1,SBD
John Marsh,23,M,Raw,M-OR,106.5,110,207.5,-225,-225,207.5,142.5,152.5,-160,152.5,222.5,-230,-230,222.5,582.5,2,SBD
Bryce Synder,27,M,Raw,M-OR,120.66,125,180,-202.5,-202.5,180,112.5,127.5,-137.5,127.5,240,260,-272.5,260,567.5,1,SBD
Timothy Walden,50,M,Raw,M-OR,120.11,125,142.5,165,180,180,125,130,140,140,165,192.5,212.5,212.5,532.5,2,SBD
David Athey,23,M,Single-ply,M-OS,78.11,82.5,227.5,237.5,-250,237.5,-167.5,167.5,182.5,182.5,227.5,-240,,227.5,647.5,1,SBD
Brandon Mitzel,22,M,Single-ply,M-OS,88.72,90,245,-255,-255,245,167.5,-175,-175,167.5,227.5,245,260,260,672.5,1,SBD
Eloy Avalos,29,M,Single-ply,M-OS,117.3,125,307.5,322.5,-330,322.5,250,-257.5,-257.5,250,255,272.5,282.5,282.5,855,1,SBD
Cody Hoferer,29,M,Raw,M-OR,99.61,100,,,,,200,212.5,-217.5,212.5,,,,,212.5,1,B
Tom Holzapfel,52,M,Raw,M-OR,120.75,125,,,,,205,-215,,205,,,,,205,1,B
Scott Pauls,36,M,Raw,M-OR,129.73,140,,,,,170,177.5,182.5,182.5,,,,,182.5,1,B
Bria Vogt,25,F,Raw,F-OR,78.65,82.5,,,,,75,80,-85,80,165,170,175,175,255,1,BD
Kody Hancock,27,M,Raw,M-OR,87.54,90,,,,,135,150,157.5,157.5,227.5,250,-257.5,250,407.5,1,BD
Tom Waldrep,,M,Raw,M-OR,99.2,100,,,,,200,212.5,-220,212.5,250,-275,-275,250,462.5,1,BD
Bret Klabunde,19,M,Raw,M-OR,97.89,100,,,,,142.5,-147.5,147.5,147.5,210,227.5,240,240,387.5,2,BD
